result (82)/timing2_2.vcd
$date
	Tue Nov 21 21:39:52 2017
$end
$version
	Icarus Verilog
$end
$timescale
	1ps
$end
$scope module assignZeros $end
$var wire 8 ! in1 [7:0] $end
$var wire 8 " in2 [7:0] $end
$var wire 8 # in3 [7:0] $end
$var wire 8 $ in4 [7:0] $end
$var wire 8 % out1 [7:0] $end
$var wire 8 & out2 [7:0] $end
$var wire 8 ' out3 [7:0] $end
$var wire 8 ( out4 [7:0] $end
$upscope $end
$scope module control_fsm $end
$var wire 1 ) clk $end
$var wire 2 * cmd [1:0] $end
$var wire 1 + done $end
$var wire 1 , long $end
$var wire 1 - type $end
$upscope $end
$scope module dassign2_2_tb $end
$var wire 1 . clk $end
$var wire 1 / ready $end
$var wire 1 0 short $end
$var wire 1 1 type $end
$var wire 8 2 width [7:0] $end
$var integer 32 3 i [31:0] $end
$var reg 1 4 in $end
$scope module clock_gen $end
$var reg 1 5 clk $end
$upscope $end
$scope module pulse_width $end
$var wire 1 . clk $end
$var wire 8 6 counter [7:0] $end
$var wire 8 7 counter2 [7:0] $end
$var wire 1 8 in $end
$var wire 1 0 long $end
$var wire 8 9 midCounter [7:0] $end
$var wire 1 / new $end
$var wire 1 : newIn $end
$var wire 8 ; pwidth [7:0] $end
$var wire 1 1 type $end
$var wire 1 < xOR $end
$scope module dregInput1 $end
$var wire 1 . clk $end
$var wire 1 8 d $end
$var reg 1 = q $end
$upscope $end
$scope module counterMux $end
$var wire 8 > a [7:0] $end
$var wire 8 ? b [7:0] $end
$var wire 1 < sel $end
$var wire 8 @ y [7:0] $end
$upscope $end
$scope module addOne $end
$var wire 8 A inCounter [7:0] $end
$var wire 8 B outCounter [7:0] $end
$upscope $end
$scope module adderDREG $end
$var wire 1 . clk $end
$var wire 8 C d [7:0] $end
$var reg 8 D q [7:0] $end
$upscope $end
$scope module endComp $end
$var wire 8 E input1 [7:0] $end
$var wire 1 0 outputLong $end
$upscope $end
$upscope $end
$upscope $end
$scope module deserializer $end
$var wire 1 F clk $end
$var wire 1 G done $end
$var wire 1 H in $end
$var wire 8 I out0 [7:0] $end
$var wire 8 J out1 [7:0] $end
$var wire 8 K out2 [7:0] $end
$var wire 8 L out3 [7:0] $end
$upscope $end
$scope module mux4 $end
$var wire 1 M a $end
$var wire 1 N b $end
$var wire 1 O c $end
$var wire 1 P d $end
$var wire 2 Q sel [1:0] $end
$var reg 1 R y $end
$upscope $end
$scope module shift4 $end
$var wire 1 S clk $end
$var wire 2 T cmd [1:0] $end
$var wire 1 U in $end
$var wire 1 V out0 $end
$var wire 1 W out1 $end
$var wire 1 X out2 $end
$var wire 1 Y out3 $end
$var reg 1 Z inReg0 $end
$var reg 1 [ inReg1 $end
$var reg 1 \ inReg2 $end
$var reg 1 ] inReg3 $end
$scope module oneDreg $end
$var wire 1 S clk $end
$var wire 1 ^ d $end
$var reg 1 _ q $end
$upscope $end
$scope module twoDreg $end
$var wire 1 S clk $end
$var wire 1 ` d $end
$var reg 1 a q $end
$upscope $end
$scope module threeDreg $end
$var wire 1 S clk $end
$var wire 1 b d $end
$var reg 1 c q $end
$upscope $end
$scope module fourDreg $end
$var wire 1 S clk $end
$var wire 1 d d $end
$var reg 1 e q $end
$upscope $end
$upscope $end
$enddefinitions $end
#0
$dumpvars
xe
xd
xc
xb
xa
x`
x_
x^
x]
x\
x[
xZ
xY
xX
xW
xV
zU
bz T
zS
xR
bz Q
zP
zO
zN
zM
bz L
bz K
bz J
bz I
zH
zG
zF
bx E
bx D
bx C
bx B
bx A
bx @
b0 ?
bx >
x=
x<
bx ;
x:
bx 9
08
bx 7
bx 6
15
04
b0 3
bx 2
x1
x0
x/
1.
z-
z,
z+
bz *
z)
bz (
bz '
bz &
bz %
bz $
bz #
bz "
bz !
$end
#3000
zR
#25000
05
0.
#50000
15
1.
#51000
b1 3
#53000
0/
0<
0=
0:
01
#75000
05
0.
#100000
15
1.
#101000
1/
1<
b10 3
14
18
#104000
b1 9
b1 B
b1 C
b0 6
b0 @
b0 A
#125000
05
0.
#150000
15
1.
#151000
b11 3
#153000
0/
0<
1=
1:
11
b1 D
b1 7
b1 >
00
b1 2
b1 ;
b1 E
#156000
b10 9
b10 B
b10 C
b1 6
b1 @
b1 A
#175000
05
0.
#200000
15
1.
#201000
b100 3
#203000
b10 D
b10 7
b10 >
b10 2
b10 ;
b10 E
#206000
b11 9
b11 B
b11 C
b10 6
b10 @
b10 A
#225000
05
0.
#250000
15
1.
#251000
b101 3
#253000
b11 D
b11 7
b11 >
10
b11 2
b11 ;
b11 E
#256000
b100 9
b100 B
b100 C
b11 6
b11 @
b11 A
#275000
05
0.
#300000
15
1.
#301000
b110 3
#303000
b100 D
b100 7
b100 >
b100 2
b100 ;
b100 E
#306000
b101 9
b101 B
b101 C
b100 6
b100 @
b100 A
#325000
05
0.
#350000
15
1.
#351000
b111 3
#353000
b101 D
b101 7
b101 >
b101 2
b101 ;
b101 E
#356000
b110 9
b110 B
b110 C
b101 6
b101 @
b101 A
#375000
05
0.
#400000
15
1.
#401000
1/
1<
b1000 3
04
08
#403000
b110 D
b110 7
b110 >
b110 2
b110 ;
b110 E
#404000
b1 9
b1 B
b1 C
b0 6
b0 @
b0 A
#425000
05
0.
#450000
15
1.
#451000
0/
0<
b1001 3
14
18
#453000
1/
1<
0=
0:
01
b1 D
b1 7
b1 >
00
b1 2
b1 ;
b1 E
#475000
05
0.
#500000
15
1.
#501000
b1010 3
#503000
0/
0<
1=
1:
11
#506000
b10 9
b10 B
b10 C
b1 6
b1 @
b1 A
#525000
05
0.
#550000
15
1.
#551000
1/
1<
b1011 3
04
08
#553000
b10 D
b10 7
b10 >
b10 2
b10 ;
b10 E
#554000
b1 9
b1 B
b1 C
b0 6
b0 @
b0 A
#575000
05
0.
#600000
15
1.
#601000
0/
0<
b1100 3
14
18
#603000
1/
1<
b1 D
b1 7
b1 >
b1 2
b1 ;
b1 E
0=
0:
01
#625000
05
0.
#650000
15
1.
#651000
b1101 3
#653000
0/
0<
1=
1:
11
#656000
b10 9
b10 B
b10 C
b1 6
b1 @
b1 A
#675000
05
0.
#700000
15
1.
#701000
1/
1<
b1110 3
04
08
#703000
b10 D
b10 7
b10 >
b10 2
b10 ;
b10 E
#704000
b1 9
b1 B
b1 C
b0 6
b0 @
b0 A
#725000
05
0.
#750000
15
1.
#751000
0/
0<
b1111 3
14
18
#753000
1/
1<
0=
0:
01
b1 D
b1 7
b1 >
b1 2
b1 ;
b1 E
#775000
05
0.
#800000
15
1.
#801000
0/
0<
b10000 3
04
08
#803000
1/
1<
1=
1:
11
#825000
05
0.
#850000
15
1.
#851000
0/
0<
b10001 3
14
18
#853000
1/
1<
0=
0:
01
#875000
05
0.
#900000
15
1.
#901000
0/
0<
b10010 3
04
08
#903000
1/
1<
1=
1:
11
#925000
05
0.
#950000
15
1.
#951000
0/
0<
b10011 3
14
18
#953000
1/
1<
0=
0:
01
#975000
05
0.
#1000000
15
1.
#1001000
b10100 3
#1003000
0/
0<
1=
1:
11
#1006000
b10 9
b10 B
b10 C
b1 6
b1 @
b1 A
#1025000
05
0.
#1050000
15
1.
#1051000
1/
1<
b10101 3
04
08
#1053000
b10 D
b10 7
b10 >
b10 2
b10 ;
b10 E
#1054000
b1 9
b1 B
b1 C
b0 6
b0 @
b0 A
#1075000
05
0.
#1100000
15
1.
#1101000
0/
0<
b10110 3
14
18
#1103000
1/
1<
b1 D
b1 7
b1 >
b1 2
b1 ;
b1 E
0=
0:
01
#1125000
05
0.
#1150000
15
1.
#1151000
0/
0<
b10111 3
04
08
#1153000
1/
1<
1=
1:
11
#1175000
05
0.
#1200000
15
1.
#1201000
b11000 3
#1203000
0/
0<
0=
0:
01
#1206000
b10 9
b10 B
b10 C
b1 6
b1 @
b1 A
#1225000
05
0.
#1250000
15
1.
#1251000
b11001 3
#1253000
b10 D
b10 7
b10 >
b10 2
b10 ;
b10 E
#1256000
b11 9
b11 B
b11 C
b10 6
b10 @
b10 A
#1275000
05
0.
#1300000
15
1.
#1301000
1/
1<
b11010 3
14
18
#1303000
b11 D
b11 7
b11 >
10
b11 2
b11 ;
b11 E
#1304000
b1 9
b1 B
b1 C
b0 6
b0 @
b0 A
#1325000
05
0.
#1350000
15
1.
#1351000
0/
0<
b11011 3
04
08
#1353000
1/
1<
1=
1:
11
b1 D
b1 7
b1 >
00
b1 2
b1 ;
b1 E
#1375000
05
0.
#1400000
15
1.
#1401000
0/
0<
b11100 3
14
18
#1403000
1/
1<
0=
0:
01
#1425000
05
0.
#1450000
15
1.
#1451000
b11101 3
#1453000
0/
0<
1=
1:
11
#1456000
b10 9
b10 B
b10 C
b1 6
b1 @
b1 A
#1475000
05
0.
#1500000
15
1.
#1501000
b11110 3
#1503000
b10 D
b10 7
b10 >
b10 2
b10 ;
b10 E
#1506000
b11 9
b11 B
b11 C
b10 6
b10 @
b10 A
#1525000
05
0.
#1550000
15
1.
#1551000
b11111 3
#1553000
b11 D
b11 7
b11 >
10
b11 2
b11 ;
b11 E
#1556000
b100 9
b100 B
b100 C
b11 6
b11 @
b11 A
#1575000
05
0.
#1600000
15
1.
#1601000
1/
1<
b100000 3
04
08
#1603000
b100 D
b100 7
b100 >
b100 2
b100 ;
b100 E
#1604000
b1 9
b1 B
b1 C
b0 6
b0 @
b0 A
#1625000
05
0.
#1650000
15
1.
#1651000
b100001 3
#1653000
0/
0<
0=
0:
01
b1 D
b1 7
b1 >
00
b1 2
b1 ;
b1 E
#1656000
b10 9
b10 B
b10 C
b1 6
b1 @
b1 A
#1675000
05
0.
#1700000
15
1.
#1701000
b100010 3
#1703000
b10 D
b10 7
b10 >
b10 2
b10 ;
b10 E
#1706000
b11 9
b11 B
b11 C
b10 6
b10 @
b10 A
#1725000
05
0.
#1750000
15
1.
#1751000
b100011 3
#1753000
b11 D
b11 7
b11 >
10
b11 2
b11 ;
b11 E
#1756000
b100 9
b100 B
b100 C
b11 6
b11 @
b11 A
#1775000
05
0.
#1800000
15
1.
#1801000
1/
1<
b100100 3
14
18
#1803000
b100 D
b100 7
b100 >
b100 2
b100 ;
b100 E
#1804000
b1 9
b1 B
b1 C
b0 6
b0 @
b0 A
#1825000
05
0.
#1850000
15
1.
#1851000
0/
0<
b100101 3
04
08
#1853000
1/
1<
1=
1:
11
b1 D
b1 7
b1 >
00
b1 2
b1 ;
b1 E
#1875000
05
0.
#1900000
15
1.
#1901000
0/
0<
b100110 3
14
18
#1903000
1/
1<
0=
0:
01
#1925000
05
0.
#1950000
15
1.
#1951000
b100111 3
#1953000
0/
0<
1=
1:
11
#1956000
b10 9
b10 B
b10 C
b1 6
b1 @
b1 A
#1975000
05
0.
#2000000
15
1.
#2001000
b101000 3
#2003000
b10 D
b10 7
b10 >
b10 2
b10 ;
b10 E
#2006000
b11 9
b11 B
b11 C
b10 6
b10 @
b10 A
#2025000
05
0.
#2050000
15
1.
#2051000
b101001 3
#2053000
b11 D
b11 7
b11 >
10
b11 2
b11 ;
b11 E
#2056000
b100 9
b100 B
b100 C
b11 6
b11 @
b11 A
#2075000
05
0.
#2100000
15
1.
#2101000
b101010 3
#2103000
b100 D
b100 7
b100 >
b100 2
b100 ;
b100 E
#2106000
b101 9
b101 B
b101 C
b100 6
b100 @
b100 A
#2125000
05
0.
#2150000
15
1.
#2151000
1/
1<
b101011 3
04
08
#2153000
b101 D
b101 7
b101 >
b101 2
b101 ;
b101 E
#2154000
b1 9
b1 B
b1 C
b0 6
b0 @
b0 A
#2175000
05
0.
#2200000
15
1.
#2201000
b101100 3
#2203000
0/
0<
b1 D
b1 7
b1 >
00
b1 2
b1 ;
b1 E
0=
0:
01
#2206000
b10 9
b10 B
b10 C
b1 6
b1 @
b1 A
#2225000
05
0.
#2250000
15
1.
#2251000
1/
1<
b101101 3
14
18
#2253000
b10 D
b10 7
b10 >
b10 2
b10 ;
b10 E
#2254000
b1 9
b1 B
b1 C
b0 6
b0 @
b0 A
#2275000
05
0.
#2300000
15
1.
#2301000
b101110 3
#2303000
0/
0<
b1 D
b1 7
b1 >
b1 2
b1 ;
b1 E
1=
1:
11
#2306000
b10 9
b10 B
b10 C
b1 6
b1 @
b1 A
#2325000
05
0.
#2350000
15
1.
#2351000
b101111 3
#2353000
b10 D
b10 7
b10 >
b10 2
b10 ;
b10 E
#2356000
b11 9
b11 B
b11 C
b10 6
b10 @
b10 A
#2375000
05
0.
#2400000
15
1.
#2401000
1/
1<
b110000 3
04
08
#2403000
b11 D
b11 7
b11 >
10
b11 2
b11 ;
b11 E
#2404000
b1 9
b1 B
b1 C
b0 6
b0 @
b0 A
#2425000
05
0.
#2450000
15
1.
#2451000
b110001 3
#2453000
0/
0<
0=
0:
01
b1 D
b1 7
b1 >
00
b1 2
b1 ;
b1 E
#2456000
b10 9
b10 B
b10 C
b1 6
b1 @
b1 A
#2475000
05
0.
#2500000
15
1.
#2501000
b110010 3
#2503000
b10 D
b10 7
b10 >
b10 2
b10 ;
b10 E
#2506000
b11 9
b11 B
b11 C
b10 6
b10 @
b10 A
#2525000
05
0.
#2550000
15
1.
#2551000
b110011 3
#2553000
b11 D
b11 7
b11 >
10
b11 2
b11 ;
b11 E
#2556000
b100 9
b100 B
b100 C
b11 6
b11 @
b11 A
#2575000
05
0.
#2600000
15
1.
#2601000
b110100 3
#2603000
b100 D
b100 7
b100 >
b100 2
b100 ;
b100 E
#2606000
b101 9
b101 B
b101 C
b100 6
b100 @
b100 A
#2625000
05
0.
#2650000
15
1.
#2651000
1/
1<
b110101 3
14
18
#2653000
b101 D
b101 7
b101 >
b101 2
b101 ;
b101 E
#2654000
b1 9
b1 B
b1 C
b0 6
b0 @
b0 A
#2675000
05
0.
#2700000
15
1.
#2701000
0/
0<
b110110 3
04
08
#2703000
1/
1<
b1 D
b1 7
b1 >
00
b1 2
b1 ;
b1 E
1=
1:
11
#2725000
05
0.
#2750000
15
1.
#2751000
b110111 3
#2753000
0/
0<
0=
0:
01
#2756000
b10 9
b10 B
b10 C
b1 6
b1 @
b1 A
#2775000
05
0.
#2800000
15
1.
#2801000
1/
1<
b111000 3
14
18
#2803000
b10 D
b10 7
b10 >
b10 2
b10 ;
b10 E
#2804000
b1 9
b1 B
b1 C
b0 6
b0 @
b0 A
#2825000
05
0.
#2850000
15
1.
#2851000
b111001 3
#2853000
0/
0<
1=
1:
11
b1 D
b1 7
b1 >
b1 2
b1 ;
b1 E
#2856000
b10 9
b10 B
b10 C
b1 6
b1 @
b1 A
#2875000
05
0.
#2900000
15
1.
#2901000
1/
1<
b111010 3
04
08
#2903000
b10 D
b10 7
b10 >
b10 2
b10 ;
b10 E
#2904000
b1 9
b1 B
b1 C
b0 6
b0 @
b0 A
#2925000
05
0.
#2950000
15
1.
#2951000
b111011 3
#2953000
0/
0<
0=
0:
01
b1 D
b1 7
b1 >
b1 2
b1 ;
b1 E
#2956000
b10 9
b10 B
b10 C
b1 6
b1 @
b1 A
#2975000
05
0.
#3000000
15
1.
#3001000
b111100 3
#3003000
b10 D
b10 7
b10 >
b10 2
b10 ;
b10 E
#3006000
b11 9
b11 B
b11 C
b10 6
b10 @
b10 A
#3025000
05
0.
#3050000
15
1.
#3051000
b111101 3
#3053000
b11 D
b11 7
b11 >
10
b11 2
b11 ;
b11 E
#3056000
b100 9
b100 B
b100 C
b11 6
b11 @
b11 A
#3075000
05
0.
#3100000
15
1.
#3101000
b111110 3
#3103000
b100 D
b100 7
b100 >
b100 2
b100 ;
b100 E
#3106000
b101 9
b101 B
b101 C
b100 6
b100 @
b100 A
#3125000
05
0.
#3150000
15
1.
#3151000
1/
1<
b111111 3
14
18
#3153000
b101 D
b101 7
b101 >
b101 2
b101 ;
b101 E
#3154000
b1 9
b1 B
b1 C
b0 6
b0 @
b0 A
#3175000
05
0.
#3200000
15
1.
#3201000
b1000000 3
#3203000
0/
0<
b1 D
b1 7
b1 >
00
b1 2
b1 ;
b1 E
1=
1:
11
#3206000
b10 9
b10 B
b10 C
b1 6
b1 @
b1 A
#3225000
05
0.
#3250000
15
1.
#3251000
b1000001 3
#3253000
b10 D
b10 7
b10 >
b10 2
b10 ;
b10 E
#3256000
b11 9
b11 B
b11 C
b10 6
b10 @
b10 A
#3275000
05
0.
#3300000
15
1.
#3301000
b1000010 3
#3303000
b11 D
b11 7
b11 >
10
b11 2
b11 ;
b11 E
#3306000
b100 9
b100 B
b100 C
b11 6
b11 @
b11 A
#3325000
05
0.
#3350000
15
1.
#3351000
b1000011 3
#3353000
b100 D
b100 7
b100 >
b100 2
b100 ;
b100 E
#3356000
b101 9
b101 B
b101 C
b100 6
b100 @
b100 A
#3375000
05
0.
#3400000
15
1.
#3401000
1/
1<
b1000100 3
04
08
#3403000
b101 D
b101 7
b101 >
b101 2
b101 ;
b101 E
#3404000
b1 9
b1 B
b1 C
b0 6
b0 @
b0 A
#3425000
05
0.
#3450000
15
1.
#3451000
b1000101 3
#3453000
0/
0<
0=
0:
01
b1 D
b1 7
b1 >
00
b1 2
b1 ;
b1 E
#3456000
b10 9
b10 B
b10 C
b1 6
b1 @
b1 A
#3475000
05
0.
#3500000
15
1.
#3501000
1/
1<
b1000110 3
14
18
#3503000
b10 D
b10 7
b10 >
b10 2
b10 ;
b10 E
#3504000
b1 9
b1 B
b1 C
b0 6
b0 @
b0 A
#3525000
05
0.
#3550000
15
1.
#3551000
b1000111 3
#3553000
0/
0<
1=
1:
11
b1 D
b1 7
b1 >
b1 2
b1 ;
b1 E
#3556000
b10 9
b10 B
b10 C
b1 6
b1 @
b1 A
#3575000
05
0.
#3600000
15
1.
#3601000
b1001000 3
#3603000
b10 D
b10 7
b10 >
b10 2
b10 ;
b10 E
#3606000
b11 9
b11 B
b11 C
b10 6
b10 @
b10 A
#3625000
05
0.
#3650000
15
1.
#3651000
1/
1<
b1001001 3
04
08
#3653000
b11 D
b11 7
b11 >
10
b11 2
b11 ;
b11 E
#3654000
b1 9
b1 B
b1 C
b0 6
b0 @
b0 A
#3675000
05
0.
#3700000
15
1.
#3701000
b1001010 3
#3703000
0/
0<
b1 D
b1 7
b1 >
00
b1 2
b1 ;
b1 E
0=
0:
01
#3706000
b10 9
b10 B
b10 C
b1 6
b1 @
b1 A
#3725000
05
0.
#3750000
15
1.
#3751000
1/
1<
b1001011 3
14
18
#3753000
b10 D
b10 7
b10 >
b10 2
b10 ;
b10 E
#3754000
b1 9
b1 B
b1 C
b0 6
b0 @
b0 A
#3775000
05
0.
#3800000
15
1.
#3801000
b1001100 3
#3803000
0/
0<
b1 D
b1 7
b1 >
b1 2
b1 ;
b1 E
1=
1:
11
#3806000
b10 9
b10 B
b10 C
b1 6
b1 @
b1 A
#3825000
05
0.
#3850000
15
1.
#3851000
1/
1<
b1001101 3
04
08
#3853000
b10 D
b10 7
b10 >
b10 2
b10 ;
b10 E
#3854000
b1 9
b1 B
b1 C
b0 6
b0 @
b0 A
#3875000
05
0.
#3900000
15
1.
#3901000
0/
0<
b1001110 3
14
18
#3903000
1/
1<
b1 D
b1 7
b1 >
b1 2
b1 ;
b1 E
0=
0:
01
#3925000
05
0.
#3950000
15
1.
#3951000
b1001111 3
#3953000
0/
0<
1=
1:
11
#3956000
b10 9
b10 B
b10 C
b1 6
b1 @
b1 A
#3975000
05
0.
#4000000
15
1.
#4001000
1/
1<
b1010000 3
04
08
#4003000
b10 D
b10 7
b10 >
b10 2
b10 ;
b10 E
#4004000
b1 9
b1 B
b1 C
b0 6
b0 @
b0 A
#4025000
05
0.
#4050000
15
1.
#4051000
0/
0<
b1010001 3
14
18
#4053000
1/
1<
0=
0:
01
b1 D
b1 7
b1 >
b1 2
b1 ;
b1 E
#4075000
05
0.
#4100000
15
1.
#4101000
b1010010 3
#4103000
0/
0<
1=
1:
11
#4106000
b10 9
b10 B
b10 C
b1 6
b1 @
b1 A
#4125000
05
0.
#4150000
15
1.
#4151000
b1010011 3
#4153000
b10 D
b10 7
b10 >
b10 2
b10 ;
b10 E
#4156000
b11 9
b11 B
b11 C
b10 6
b10 @
b10 A
#4175000
05
0.
#4200000
15
1.
#4201000
1/
1<
b1010100 3
04
08
#4203000
b11 D
b11 7
b11 >
10
b11 2
b11 ;
b11 E
#4204000
b1 9
b1 B
b1 C
b0 6
b0 @
b0 A
#4225000
05
0.
#4250000
15
1.
#4251000
0/
0<
b1010101 3
14
18
#4253000
1/
1<
0=
0:
01
b1 D
b1 7
b1 >
00
b1 2
b1 ;
b1 E
#4275000
05
0.
#4300000
15
1.
#4301000
b1010110 3
#4303000
0/
0<
1=
1:
11
#4306000
b10 9
b10 B
b10 C
b1 6
b1 @
b1 A
#4325000
05
0.
#4350000
15
1.
#4351000
1/
1<
b1010111 3
04
08
#4353000
b10 D
b10 7
b10 >
b10 2
b10 ;
b10 E
#4354000
b1 9
b1 B
b1 C
b0 6
b0 @
b0 A
#4375000
05
0.
#4400000
15
1.
#4401000
b1011000 3
#4403000
0/
0<
b1 D
b1 7
b1 >
b1 2
b1 ;
b1 E
0=
0:
01
#4406000
b10 9
b10 B
b10 C
b1 6
b1 @
b1 A
#4425000
05
0.
#4450000
15
1.
#4451000
b1011001 3
#4453000
b10 D
b10 7
b10 >
b10 2
b10 ;
b10 E
#4456000
b11 9
b11 B
b11 C
b10 6
b10 @
b10 A
#4475000
05
0.
#4500000
15
1.
#4501000
b1011010 3
#4503000
b11 D
b11 7
b11 >
10
b11 2
b11 ;
b11 E
#4506000
b100 9
b100 B
b100 C
b11 6
b11 @
b11 A
#4525000
05
0.
#4550000
15
1.
#4551000
1/
1<
b1011011 3
14
18
#4553000
b100 D
b100 7
b100 >
b100 2
b100 ;
b100 E
#4554000
b1 9
b1 B
b1 C
b0 6
b0 @
b0 A
#4575000
05
0.
#4600000
15
1.
#4601000
b1011100 3
#4603000
0/
0<
b1 D
b1 7
b1 >
00
b1 2
b1 ;
b1 E
1=
1:
11
#4606000
b10 9
b10 B
b10 C
b1 6
b1 @
b1 A
#4625000
05
0.
#4650000
15
1.
#4651000
1/
1<
b1011101 3
04
08
#4653000
b10 D
b10 7
b10 >
b10 2
b10 ;
b10 E
#4654000
b1 9
b1 B
b1 C
b0 6
b0 @
b0 A
#4675000
05
0.
#4700000
15
1.
#4701000
b1011110 3
#4703000
0/
0<
b1 D
b1 7
b1 >
b1 2
b1 ;
b1 E
0=
0:
01
#4706000
b10 9
b10 B
b10 C
b1 6
b1 @
b1 A
#4725000
05
0.
#4750000
15
1.
#4751000
1/
1<
b1011111 3
14
18
#4753000
b10 D
b10 7
b10 >
b10 2
b10 ;
b10 E
#4754000
b1 9
b1 B
b1 C
b0 6
b0 @
b0 A
#4775000
05
0.
#4800000
15
1.
#4801000
b1100000 3
#4803000
0/
0<
b1 D
b1 7
b1 >
b1 2
b1 ;
b1 E
1=
1:
11
#4806000
b10 9
b10 B
b10 C
b1 6
b1 @
b1 A
#4825000
05
0.
#4850000
15
1.
#4851000
b1100001 3
#4853000
b10 D
b10 7
b10 >
b10 2
b10 ;
b10 E
#4856000
b11 9
b11 B
b11 C
b10 6
b10 @
b10 A
#4875000
05
0.
#4900000
15
1.
#4901000
b1100010 3
#4903000
b11 D
b11 7
b11 >
10
b11 2
b11 ;
b11 E
#4906000
b100 9
b100 B
b100 C
b11 6
b11 @
b11 A
#4925000
05
0.
#4950000
15
1.
#4951000
b1100011 3
#4953000
b100 D
b100 7
b100 >
b100 2
b100 ;
b100 E
#4956000
b101 9
b101 B
b101 C
b100 6
b100 @
b100 A
#4975000
05
0.
#5000000
15
1.
#5001000
1/
1<
b1100100 3
04
08
#5003000
b101 D
b101 7
b101 >
b101 2
b101 ;
b101 E
#5004000
b1 9
b1 B
b1 C
b0 6
b0 @
b0 A
#5025000
05
0.
#5050000
15
1.
#5051000
0/
0<
b1100101 3
14
18
#5053000
1/
1<
0=
0:
01
b1 D
b1 7
b1 >
00
b1 2
b1 ;
b1 E
#5075000
05
0.
#5100000
15
1.
#5101000
b1100110 3
#5103000
0/
0<
1=
1:
11
#5106000
b10 9
b10 B
b10 C
b1 6
b1 @
b1 A
#5125000
05
0.
#5150000
15
1.
#5151000
b1100111 3
#5153000
b10 D
b10 7
b10 >
b10 2
b10 ;
b10 E
#5156000
b11 9
b11 B
b11 C
b10 6
b10 @
b10 A
#5175000
05
0.
#5200000
15
1.
#5201000
1/
1<
b1101000 3
04
08
#5203000
b11 D
b11 7
b11 >
10
b11 2
b11 ;
b11 E
#5204000
b1 9
b1 B
b1 C
b0 6
b0 @
b0 A
#5225000
05
0.
#5250000
15
1.
#5251000
b1101001 3
#5253000
0/
0<
0=
0:
01
b1 D
b1 7
b1 >
00
b1 2
b1 ;
b1 E
#5256000
b10 9
b10 B
b10 C
b1 6
b1 @
b1 A
#5275000
05
0.
#5300000
15
1.
#5301000
b1101010 3
#5303000
b10 D
b10 7
b10 >
b10 2
b10 ;
b10 E
#5306000
b11 9
b11 B
b11 C
b10 6
b10 @
b10 A
#5325000
05
0.
#5350000
15
1.
#5351000
b1101011 3
#5353000
b11 D
b11 7
b11 >
10
b11 2
b11 ;
b11 E
#5356000
b100 9
b100 B
b100 C
b11 6
b11 @
b11 A
#5375000
05
0.
#5400000
15
1.
#5401000
b1101100 3
#5403000
b100 D
b100 7
b100 >
b100 2
b100 ;
b100 E
#5406000
b101 9
b101 B
b101 C
b100 6
b100 @
b100 A
#5425000
05
0.
#5450000
15
1.
#5451000
b1101101 3
#5453000
b101 D
b101 7
b101 >
b101 2
b101 ;
b101 E
#5456000
b110 9
b110 B
b110 C
b101 6
b101 @
b101 A
#5475000
05
0.
#5500000
15
1.
#5501000
b1101110 3
#5503000
b110 D
b110 7
b110 >
b110 2
b110 ;
b110 E
#5506000
b111 9
b111 B
b111 C
b110 6
b110 @
b110 A
#5525000
05
0.
#5550000
15
1.
#5551000
1/
1<
b1101111 3
14
18
#5553000
b111 D
b111 7
b111 >
b111 2
b111 ;
b111 E
#5554000
b1 9
b1 B
b1 C
b0 6
b0 @
b0 A
#5575000
05
0.
#5600000
15
1.
#5601000
b1110000 3
#5603000
0/
0<
b1 D
b1 7
b1 >
00
b1 2
b1 ;
b1 E
1=
1:
11
#5606000
b10 9
b10 B
b10 C
b1 6
b1 @
b1 A
#5625000
05
0.
#5650000
15
1.
#5651000
b1110001 3
#5653000
b10 D
b10 7
b10 >
b10 2
b10 ;
b10 E
#5656000
b11 9
b11 B
b11 C
b10 6
b10 @
b10 A
#5675000
05
0.
#5700000
15
1.
#5701000
b1110010 3
#5703000
b11 D
b11 7
b11 >
10
b11 2
b11 ;
b11 E
#5706000
b100 9
b100 B
b100 C
b11 6
b11 @
b11 A
#5725000
05
0.
#5750000
15
1.
#5751000
b1110011 3
#5753000
b100 D
b100 7
b100 >
b100 2
b100 ;
b100 E
#5756000
b101 9
b101 B
b101 C
b100 6
b100 @
b100 A
#5775000
05
0.
#5800000
15
1.
#5801000
1/
1<
b1110100 3
04
08
#5803000
b101 D
b101 7
b101 >
b101 2
b101 ;
b101 E
#5804000
b1 9
b1 B
b1 C
b0 6
b0 @
b0 A
#5825000
05
0.
#5850000
15
1.
#5851000
0/
0<
b1110101 3
14
18
#5853000
1/
1<
0=
0:
01
b1 D
b1 7
b1 >
00
b1 2
b1 ;
b1 E
#5875000
05
0.
#5900000
15
1.
#5901000
b1110110 3
#5903000
0/
0<
1=
1:
11
#5906000
b10 9
b10 B
b10 C
b1 6
b1 @
b1 A
#5925000
05
0.
#5950000
15
1.
#5951000
1/
1<
b1110111 3
04
08
#5953000
b10 D
b10 7
b10 >
b10 2
b10 ;
b10 E
#5954000
b1 9
b1 B
b1 C
b0 6
b0 @
b0 A
#5975000
05
0.
#6000000
15
1.
#6001000
b1111000 3
#6003000
0/
0<
b1 D
b1 7
b1 >
b1 2
b1 ;
b1 E
0=
0:
01
#6006000
b10 9
b10 B
b10 C
b1 6
b1 @
b1 A
#6025000
05
0.
#6050000
15
1.
#6051000
1/
1<
b1111001 3
14
18
#6053000
b10 D
b10 7
b10 >
b10 2
b10 ;
b10 E
#6054000
b1 9
b1 B
b1 C
b0 6
b0 @
b0 A
#6075000
05
0.
#6100000
15
1.
#6101000
b1111010 3
#6103000
0/
0<
b1 D
b1 7
b1 >
b1 2
b1 ;
b1 E
1=
1:
11
#6106000
b10 9
b10 B
b10 C
b1 6
b1 @
b1 A
#6125000
05
0.
#6150000
15
1.
#6151000
1/
1<
b1111011 3
04
08
#6153000
b10 D
b10 7
b10 >
b10 2
b10 ;
b10 E
#6154000
b1 9
b1 B
b1 C
b0 6
b0 @
b0 A
#6175000
05
0.
#6200000
15
1.
#6201000
0/
0<
b1111100 3
14
18
#6203000
1/
1<
b1 D
b1 7
b1 >
b1 2
b1 ;
b1 E
0=
0:
01
#6225000
05
0.
#6250000
15
1.
#6251000
b1111101 3
#6253000
0/
0<
1=
1:
11
#6256000
b10 9
b10 B
b10 C
b1 6
b1 @
b1 A
#6275000
05
0.
#6300000
15
1.
#6301000
b1111110 3
#6303000
b10 D
b10 7
b10 >
b10 2
b10 ;
b10 E
#6306000
b11 9
b11 B
b11 C
b10 6
b10 @
b10 A
#6325000
05
0.
#6350000
15
1.
#6351000
b1111111 3
